[gd_resource type="StyleBoxTexture" load_steps=2 format=3 uid="uid://cq50oqrod7awe"]

[ext_resource type="Texture2D" uid="uid://ccm5hktch2ncx" path="res://assets/ui/pannel-9-patch3.png" id="1_h503n"]

[resource]
content_margin_left = 15.0
content_margin_top = 0.0
content_margin_right = 15.0
content_margin_bottom = 0.0
texture = ExtResource("1_h503n")
margin_left = 20.0
margin_top = 20.0
margin_right = 20.0
margin_bottom = 20.0
axis_stretch_horizontal = 1
axis_stretch_vertical = 1
region_rect = Rect2(0, 0, 72, 72)
